Rank,State,Num Bridges,Bad bridges
1,Iowa,"24,215","5,067"
2,Pennsylvania,"22,779","4,173"
3,Oklahoma,"23,071","3,234"
4,Missouri,"24,487","3,086"
5,Illinois,"26,775","2,303"
6,Nebraska,"15,330","2,258"
7,Kansas,"25,001","2,115"
8,Mississippi,"17,072","2,008"
9,North Carolina,"18,183","1,854"
10,New York,"17,456","1,837"
11,Louisiana,"12,910","1,821"
12,Ohio,"27,345","1,653"
13,California,"25,657","1,603"
14,Indiana,"19,291","1,435"
15,West Virginia,"7,228","1,372"
16,Wisconsin,"14,253","1,245"
17,Alabama,"16,129","1,200"
18,Michigan,"11,180","1,175"
19,Kentucky,"14,280","1,110"
20,South Dakota,"5,818","1,081"
21,Tennessee,"20,169",953
22,South Carolina,"9,341",926
23,Texas,"53,869",847
24,Virginia,"13,932",825
25,Arkansas,"12,864",765
26,Minnesota,"13,329",709
27,Georgia,"14,863",692
28,North Dakota,"4,377",614
29,New Jersey,"6,737",596
30,Montana,"5,302",515
31,Colorado,"8,717",488
32,Massachusetts,"5,192",482
33,Oregon,"8,147",444
34,Washington,"8,233",399
35,Idaho,"4,492",393
36,Connecticut,"4,238",332
37,Maine,"2,458",326
38,Wyoming,"3,127",310
39,Maryland,"5,335",300
40,New Hampshire,"2,479",270
41,Florida,"12,355",265
42,New Mexico,"3,999",251
43,Arizona,"8,289",205
44,Rhode Island,778,181
45,Alaska,"1,569",165
46,Vermont,"2,772",145
47,Utah,"3,051",87
48,Hawaii,"1,135",66
49,Delaware,879,39
50,Nevada,"1,944",31
51,District of Columbia,245,8
,TOTAL,"612,677","54,259"