id,state,type,numberofbridges,areaofallbridges,dailycrossingsonallbridges,numberofsdbridges,areaofsdbridges,dailycrossingonsdb,year
1,"Alabama","Rural Interstate",670,1163672,13416938,10,10668,162130,2017
2,"Alabama","Rural arterial",1148,1116742,8725298,16,12656,132415,2017
3,"Alabama","Rural minor arterial",1510,999158,4982218,29,18906,104514,2017
4,"Alabama","Rural major collector",3094,1327516,4801788,124,42307,126401,2017
5,"Alabama","Rural minor collector",2342,670903,1289591,192,26858,66045,2017
6,"Alabama","Rural local road",4450,914268,1742581,698,86233,112365,2017
7,"Alabama","Urban Interstate",563,1829560,21193270,10,72960,541385,2017
8,"Alabama","Urban freeway/expressway",87,180925,1668902,1,844,32040,2017
9,"Alabama","Urban other principal arterial",552,730774,10466319,8,6288,141871,2017
10,"Alabama","Urban minor arterial",387,305621,4297289,11,8738,92241,2017
11,"Alabama","Urban collector",296,191314,1675150,10,2849,52079,2017
12,"Alabama","Urban local road",1030,389069,2919645,91,35306,152889,2017
13,"Alabama","Total",16129,9819526,77178989,1200,324619,1716375,2017
14,"Alaska","Rural Interstate",152,146972,813591,13,11837,41887,2017
15,"Alaska","Rural arterial",102,59022,134933,5,3660,8499,2017
16,"Alaska","Rural minor arterial",67,28616,69585,4,981,1392,2017
17,"Alaska","Rural major collector",231,126658,117954,20,10329,11358,2017
18,"Alaska","Rural minor collector",68,20635,21371,10,1776,2325,2017
19,"Alaska","Rural local road",700,104988,38323,92,14865,1591,2017
20,"Alaska","Urban Interstate",45,39775,1013088,0,0,0,2017
21,"Alaska","Urban freeway/expressway",0,0,0,0,0,0,2017
22,"Alaska","Urban other principal arterial",58,87885,1136163,0,0,0,2017
23,"Alaska","Urban minor arterial",52,77799,427313,5,10691,45079,2017
24,"Alaska","Urban collector",46,26651,105590,6,1872,5747,2017
25,"Alaska","Urban local road",48,16634,24935,10,5065,1508,2017
26,"Alaska","Total",1569,735640,3902846,165,61080,119386,2017
27,"Arizona","Rural Interstate",1241,571910,18364490,15,19696,228441,2017
28,"Arizona","Rural arterial",924,577838,6985764,9,8331,51412,2017
29,"Arizona","Rural minor arterial",695,256705,2647172,15,8825,24655,2017
30,"Arizona","Rural major collector",1106,467139,2541467,26,14774,34361,2017
31,"Arizona","Rural minor collector",321,100688,334961,22,6496,7727,2017
32,"Arizona","Rural local road",768,233117,439829,62,17454,15760,2017
33,"Arizona","Urban Interstate",326,636937,15531715,13,11524,530131,2017
34,"Arizona","Urban freeway/expressway",390,929052,22508638,3,6140,43430,2017
35,"Arizona","Urban other principal arterial",734,809469,15803951,4,6187,100872,2017
36,"Arizona","Urban minor arterial",640,704502,9236427,5,14342,66890,2017
37,"Arizona","Urban collector",421,272674,2624857,6,2228,27122,2017
38,"Arizona","Urban local road",699,276254,1499175,25,4650,14305,2017
40,"Arizona","Total",8289,5854348,98518456,205,120652,1145106,2017
41,"Arkansas","Rural Interstate",558,676881,9044396,6,15025,135000,2017
42,"Arkansas","Rural arterial",1080,1101929,6505555,23,16961,153140,2017
43,"Arkansas","Rural minor arterial",1237,722302,3771392,68,59680,174884,2017
44,"Arkansas","Rural major collector",3929,1351888,4168886,211,70189,223668,2017
45,"Arkansas","Rural minor collector",1093,255563,295030,95,11808,17258,2017
46,"Arkansas","Rural local road",3053,538902,484723,286,37404,38749,2017
47,"Arkansas","Urban Interstate",391,983918,13789810,18,154891,726000,2017
48,"Arkansas","Urban freeway/expressway",126,255428,2493500,10,7703,236200,2017
49,"Arkansas","Urban other principal arterial",363,415204,4940339,15,33079,158600,2017
50,"Arkansas","Urban minor arterial",408,249081,2772239,13,19163,179468,2017
51,"Arkansas","Urban collector",165,65332,425696,3,353,2331,2017
52,"Arkansas","Urban local road",461,118582,599282,17,4258,24918,2017
53,"Arkansas","Total",12864,6735015,49290848,765,430519,2070216,2017
54,"California","Rural Interstate",1211,1297962,31423940,65,43238,1231100,2017
55,"California","Rural arterial",1394,1265460,23003467,37,47541,423507,2017
56,"California","Rural minor arterial",1447,985310,7371997,53,25478,247220,2017
57,"California","Rural major collector",2208,1028612,5726012,201,94815,394500,2017
58,"California","Rural minor collector",1214,407672,1421297,142,44918,146014,2017
59,"California","Rural local road",4160,1063806,3084141,435,91715,163644,2017
60,"California","Urban Interstate",2618,7953166,2.713e+08,57,153514,4991650,2017
61,"California","Urban freeway/expressway",3096,6895969,2.106e+08,81,490837,3824922,2017
62,"California","Urban other principal arterial",2518,3772019,60891328,184,407906,4685250,2017
63,"California","Urban minor arterial",2561,3050664,36566859,155,209508,2273450,2017
64,"California","Urban collector",1391,946404,8631191,94,65561,593586,2017
65,"California","Urban local road",1839,1105795,8379394,99,56783,375767,2017
66,"California","Total",25657,29772845,6.684e+08,1603,1731821,19350610,2017
67,"Colorado","Rural Interstate",558,401328,5773595,34,39270,294868,2017
68,"Colorado","Rural arterial",628,336602,3430039,17,5721,59670,2017
69,"Colorado","Rural minor arterial",670,301828,1833034,43,16446,114161,2017
70,"Colorado","Rural major collector",701,267024,1320160,46,13037,58788,2017
71,"Colorado","Rural minor collector",1081,314598,1160604,63,14869,52588,2017
72,"Colorado","Rural local road",2271,468771,1333518,180,30119,76130,2017
73,"Colorado","Urban Interstate",562,971597,24969530,27,34846,1302636,2017
74,"Colorado","Urban freeway/expressway",401,559867,11315160,10,12821,319705,2017
75,"Colorado","Urban other principal arterial",543,657203,11068655,21,23295,396420,2017
76,"Colorado","Urban minor arterial",437,358395,4279370,17,17092,107891,2017
77,"Colorado","Urban collector",348,252415,2396367,13,5252,45770,2017
78,"Colorado","Urban local road",517,161911,1501014,17,4283,12484,2017
79,"Colorado","Total",8717,5051545,70381046,488,217056,2841111,2017
80,"Connecticut","Rural Interstate",79,120454,2065325,3,7609,90100,2017
81,"Connecticut","Rural arterial",125,68067,1662594,3,2746,39150,2017
82,"Connecticut","Rural minor arterial",95,35448,571478,5,2561,28100,2017
83,"Connecticut","Rural major collector",243,67601,841825,11,4255,31235,2017
84,"Connecticut","Rural minor collector",82,19725,109658,4,1246,3312,2017
85,"Connecticut","Rural local road",488,85585,284144,54,8970,34903,2017
86,"Connecticut","Urban Interstate",739,1366971,44158451,52,256463,2679699,2017
87,"Connecticut","Urban freeway/expressway",561,634715,16131046,19,49938,450954,2017
88,"Connecticut","Urban other principal arterial",331,279380,4993350,25,45720,440164,2017
89,"Connecticut","Urban minor arterial",498,324274,5032993,48,35299,476314,2017
90,"Connecticut","Urban collector",435,214429,2211062,44,15744,217688,2017
91,"Connecticut","Urban local road",562,189700,1113897,64,13881,147102,2017
92,"Connecticut","Total",4238,3406355,79175823,332,444435,4638721,2017
93,"Delaware","Rural Interstate",0,0,0,0,0,0,2017
94,"Delaware","Rural arterial",83,231881,1934846,3,21903,42463,2017
95,"Delaware","Rural minor arterial",21,11772,311118,1,148,9447,2017
96,"Delaware","Rural major collector",89,43176,377638,4,926,24570,2017
97,"Delaware","Rural minor collector",28,4775,71454,1,92,3906,2017
98,"Delaware","Rural local road",198,29897,176372,10,858,6679,2017
99,"Delaware","Urban Interstate",94,336152,3822922,0,0,0,2017
100,"Delaware","Urban freeway/expressway",29,34924,632196,0,0,0,2017
101,"Delaware","Urban other principal arterial",120,170853,2742435,6,25896,120754,2017
102,"Delaware","Urban minor arterial",69,71286,868724,4,6566,52289,2017
103,"Delaware","Urban collector",82,37343,558225,7,2237,44289,2017
104,"Delaware","Urban local road",66,23880,147825,3,1350,5097,2017
105,"Delaware","Total",879,995944,11643755,39,59981,309494,2017
106,"District of Columbia","Rural Interstate",0,0,0,0,0,0,2017
107,"District of Columbia","Rural arterial",0,0,0,0,0,0,2017
108,"District of Columbia","Rural minor arterial",0,0,0,0,0,0,2017
109,"District of Columbia","Rural major collector",0,0,0,0,0,0,2017
110,"District of Columbia","Rural minor collector",1,274,2000,0,0,0,2017
111,"District of Columbia","Rural local road",0,0,0,0,0,0,2017
112,"District of Columbia","Urban Interstate",68,200620,3576270,2,1854,83950,2017
113,"District of Columbia","Urban freeway/expressway",21,71083,862300,1,608,58000,2017
114,"District of Columbia","Urban other principal arterial",50,159267,1872600,1,258,5000,2017
115,"District of Columbia","Urban minor arterial",38,64199,657400,0,0,0,2017
116,"District of Columbia","Urban collector",20,26552,202300,0,0,0,2017
117,"District of Columbia","Urban local road",47,48908,487741,4,24767,76683,2017
118,"District of Columbia","Total",245,570906,7660611,8,27489,223633,2017
119,"Florida","Rural Interstate",577,757856,13485779,5,8430,139500,2017
120,"Florida","Rural arterial",1011,1179381,8855207,2,1029,15700,2017
121,"Florida","Rural minor arterial",599,648291,3564252,12,17734,51040,2017
122,"Florida","Rural major collector",776,490966,2063742,34,9533,42734,2017
123,"Florida","Rural minor collector",544,229165,1005459,34,18517,39449,2017
124,"Florida","Rural local road",1505,347895,1483815,111,40704,32424,2017
125,"Florida","Urban Interstate",1294,4079376,77536548,3,10653,99325,2017
126,"Florida","Urban freeway/expressway",1288,2643464,46293319,0,0,0,2017
127,"Florida","Urban other principal arterial",1360,3364116,34687885,11,110720,296716,2017
128,"Florida","Urban minor arterial",1102,2257669,19562175,8,28163,121006,2017
129,"Florida","Urban collector",1089,790352,9779168,16,10474,92142,2017
130,"Florida","Urban local road",1210,576040,4300867,29,27770,72342,2017
131,"Florida","Total",12355,17364578,2.226e+08,265,283732,1002378,2017
132,"Georgia","Rural Interstate",422,729969,14890950,2,3740,2400,2017
133,"Georgia","Rural arterial",997,1030206,6829580,9,25074,36600,2017
134,"Georgia","Rural minor arterial",1367,945240,5218999,24,29860,112740,2017
135,"Georgia","Rural major collector",2638,1150224,3598951,94,43492,117990,2017
136,"Georgia","Rural minor collector",1180,331223,618006,80,21481,38932,2017
137,"Georgia","Rural local road",3419,679015,1282100,352,55160,93133,2017
138,"Georgia","Urban Interstate",570,1225773,52592088,3,8034,297070,2017
139,"Georgia","Urban freeway/expressway",223,338610,9962980,1,113,26920,2017
140,"Georgia","Urban other principal arterial",828,1286722,16298370,14,53541,281340,2017
141,"Georgia","Urban minor arterial",1251,1226770,15030514,36,27354,305370,2017
142,"Georgia","Urban collector",615,435640,3923606,16,9494,75190,2017
143,"Georgia","Urban local road",1353,731754,4936723,61,15380,104186,2017
144,"Georgia","Total",14863,10111153,1.352e+08,692,292728,1491871,2017
145,"Hawaii","Rural Interstate",23,191290,976261,1,1441,36515,2017
146,"Hawaii","Rural arterial",78,35337,1059796,7,1449,85910,2017
147,"Hawaii","Rural minor arterial",180,100671,1393668,13,2295,32734,2017
148,"Hawaii","Rural major collector",128,26025,410118,9,1099,32130,2017
149,"Hawaii","Rural minor collector",31,7194,89939,5,368,2322,2017
150,"Hawaii","Rural local road",115,17522,71708,9,1538,9070,2017
151,"Hawaii","Urban Interstate",186,748179,15243768,2,1933,30940,2017
152,"Hawaii","Urban freeway/expressway",83,53769,3068853,1,514,65350,2017
153,"Hawaii","Urban other principal arterial",98,68693,3664779,13,9115,785203,2017
154,"Hawaii","Urban minor arterial",41,29492,747153,1,472,17615,2017
155,"Hawaii","Urban collector",70,19605,428524,1,144,9543,2017
156,"Hawaii","Urban local road",102,21177,246712,4,515,13681,2017
157,"Hawaii","Total",1135,1318960,27401279,66,20890,1121013,2017
158,"Idaho","Rural Interstate",276,209671,1979360,5,1923,35020,2017
159,"Idaho","Rural arterial",322,277938,1615800,10,8481,40000,2017
160,"Idaho","Rural minor arterial",235,124631,476760,9,9396,14330,2017
161,"Idaho","Rural major collector",730,257466,753244,44,17587,40960,2017
162,"Idaho","Rural minor collector",271,55429,69566,24,6497,4507,2017
163,"Idaho","Rural local road",1991,278947,277275,273,30024,28174,2017
164,"Idaho","Urban Interstate",116,116788,2452050,3,2153,41250,2017
165,"Idaho","Urban freeway/expressway",0,0,0,0,0,0,2017
166,"Idaho","Urban other principal arterial",191,258441,2798400,4,10275,56000,2017
167,"Idaho","Urban minor arterial",150,103883,1286030,5,8145,59300,2017
168,"Idaho","Urban collector",106,34038,321410,9,2924,27100,2017
169,"Idaho","Urban local road",104,36314,106673,7,1150,8060,2017
170,"Idaho","Total",4492,1753553,12136568,393,98559,354701,2017
171,"Illinois","Rural Interstate",878,768790,9291800,63,89154,539200,2017
172,"Illinois","Rural arterial",852,540870,4096200,48,35899,245950,2017
173,"Illinois","Rural minor arterial",1515,733260,3926950,115,81312,299675,2017
174,"Illinois","Rural major collector",3223,1066213,3168075,217,97690,207725,2017
175,"Illinois","Rural minor collector",1422,390408,687890,123,29523,66825,2017
176,"Illinois","Rural local road",12216,2166348,1422679,1077,131025,111544,2017
177,"Illinois","Urban Interstate",1435,2928182,61601150,87,235297,2318825,2017
178,"Illinois","Urban freeway/expressway",214,266496,5986350,16,17715,604450,2017
179,"Illinois","Urban other principal arterial",1342,2125646,28758625,136,323645,2894275,2017
180,"Illinois","Urban minor arterial",1273,1295569,12978425,108,135904,1247625,2017
181,"Illinois","Urban collector",1072,800501,4982015,130,142840,684760,2017
182,"Illinois","Urban local road",1333,511100,1261821,183,57911,159955,2017
183,"Illinois","Total",26775,13593388,1.382e+08,2303,1377923,9380809,2017
184,"Indiana","Rural Interstate",937,847213,13207009,19,14205,285939,2017
185,"Indiana","Rural arterial",961,693262,8188535,29,14347,237774,2017
186,"Indiana","Rural minor arterial",735,425234,3907455,36,18221,194314,2017
187,"Indiana","Rural major collector",2775,1044772,6180990,173,53884,348003,2017
188,"Indiana","Rural minor collector",2394,565388,1375741,208,29567,79815,2017
189,"Indiana","Rural local road",7576,1200840,1927997,699,83867,127777,2017
190,"Indiana","Urban Interstate",736,1166861,34072789,29,106841,1518490,2017
191,"Indiana","Urban freeway/expressway",282,406056,5006506,9,9520,153678,2017
192,"Indiana","Urban other principal arterial",619,796180,11836340,27,38558,491006,2017
193,"Indiana","Urban minor arterial",754,584157,7969324,56,33144,570996,2017
194,"Indiana","Urban collector",630,279140,3586844,49,24708,241007,2017
195,"Indiana","Urban local road",892,231298,1428174,101,19571,141089,2017
196,"Indiana","Total",19291,8240407,98687704,1435,446437,4389888,2017
197,"Iowa","Rural Interstate",369,276574,4685120,1,866,10350,2017
198,"Iowa","Rural arterial",1246,967358,5404695,15,5695,54850,2017
199,"Iowa","Rural minor arterial",1074,598284,2048073,21,11685,36170,2017
200,"Iowa","Rural major collector",3458,1266221,2512458,574,187647,359500,2017
201,"Iowa","Rural minor collector",3929,1008632,554055,777,143564,87040,2017
202,"Iowa","Rural local road",11846,1835889,611646,3492,392239,150186,2017
203,"Iowa","Urban Interstate",346,705046,8572170,5,41113,80450,2017
204,"Iowa","Urban freeway/expressway",0,0,0,0,0,0,2017
205,"Iowa","Urban other principal arterial",615,1072481,5877410,10,50317,138860,2017
206,"Iowa","Urban minor arterial",541,609032,3716583,57,94467,320480,2017
207,"Iowa","Urban collector",304,183963,790615,28,19097,48690,2017
208,"Iowa","Urban local road",487,156324,420814,87,38561,46401,2017
209,"Iowa","Total",24215,8679810,35193639,5067,985255,1332977,2017
210,"Kansas","Rural Interstate",521,318907,4748186,5,4685,43615,2017
211,"Kansas","Rural arterial",1355,857083,5125769,9,5991,35730,2017
212,"Kansas","Rural minor arterial",1328,633255,2045234,10,5190,14358,2017
213,"Kansas","Rural major collector",6290,1853408,2624046,345,84524,127740,2017
214,"Kansas","Rural minor collector",1976,388080,152802,171,24017,11356,2017
215,"Kansas","Rural local road",10520,1638966,488072,1488,148958,45723,2017
216,"Kansas","Urban Interstate",530,995125,13461245,3,23288,63700,2017
217,"Kansas","Urban freeway/expressway",391,524181,6924351,1,13508,29900,2017
218,"Kansas","Urban other principal arterial",289,451267,3046050,0,0,0,2017
219,"Kansas","Urban minor arterial",763,684690,6991252,35,33869,208962,2017
220,"Kansas","Urban collector",466,240511,1471651,15,3521,17549,2017
221,"Kansas","Urban local road",572,141054,713296,33,9837,33017,2017
222,"Kansas","Total",25001,8726532,47791954,2115,357391,631650,2017
223,"Kentucky","Rural Interstate",384,472952,8089509,13,13364,292492,2017
224,"Kentucky","Rural arterial",825,976619,5076120,9,23832,67009,2017
225,"Kentucky","Rural minor arterial",675,473628,2760518,31,25797,128302,2017
226,"Kentucky","Rural major collector",1904,748558,3863195,111,28641,204448,2017
227,"Kentucky","Rural minor collector",2441,602727,1641129,205,40217,149875,2017
228,"Kentucky","Rural local road",5821,839273,1253032,616,64452,132986,2017
229,"Kentucky","Urban Interstate",416,784931,26431327,12,81035,809786,2017
230,"Kentucky","Urban freeway/expressway",137,108976,2740539,1,2049,12507,2017
231,"Kentucky","Urban other principal arterial",283,454953,4080847,8,13514,146154,2017
232,"Kentucky","Urban minor arterial",499,543093,5326087,15,12358,180083,2017
233,"Kentucky","Urban collector",423,230977,1835386,45,17939,224020,2017
234,"Kentucky","Urban local road",472,112090,744683,44,7531,58301,2017
235,"Kentucky","Total",14280,6348783,63842372,1110,330734,2405963,2017
236,"Louisiana","Rural Interstate",581,3001701,10345150,12,86240,302810,2017
237,"Louisiana","Rural arterial",646,1238481,4252434,23,22736,128380,2017
238,"Louisiana","Rural minor arterial",1511,1212033,3586156,130,146561,258079,2017
239,"Louisiana","Rural major collector",1792,998846,3412213,230,121332,349113,2017
240,"Louisiana","Rural minor collector",1067,387606,955449,180,54568,139513,2017
241,"Louisiana","Rural local road",3845,897110,2156532,958,171619,377941,2017
242,"Louisiana","Urban Interstate",969,4651597,32346307,38,431600,968110,2017
243,"Louisiana","Urban freeway/expressway",136,676617,2287730,1,2766,3280,2017
244,"Louisiana","Urban other principal arterial",602,2197590,10950240,47,184966,846000,2017
245,"Louisiana","Urban minor arterial",485,512740,4792186,61,76229,542836,2017
246,"Louisiana","Urban collector",397,283803,1814007,53,35886,219020,2017
247,"Louisiana","Urban local road",879,606005,3685928,88,57820,254740,2017
248,"Louisiana","Total",12910,16664135,80584332,1821,1392328,4389822,2017
249,"Maine","Rural Interstate",164,121367,1537257,6,3484,60690,2017
250,"Maine","Rural arterial",137,99031,1027376,10,6976,60457,2017
251,"Maine","Rural minor arterial",181,95093,995384,20,10000,99227,2017
252,"Maine","Rural major collector",460,169886,1026691,59,24670,124524,2017
253,"Maine","Rural minor collector",266,72855,319567,35,7940,39643,2017
254,"Maine","Rural local road",759,136111,352151,140,13740,32483,2017
255,"Maine","Urban Interstate",139,200004,2282776,4,3348,94610,2017
256,"Maine","Urban freeway/expressway",22,37586,212424,1,3922,18297,2017
257,"Maine","Urban other principal arterial",53,85884,747348,6,2932,66931,2017
258,"Maine","Urban minor arterial",82,135339,936025,13,10376,148617,2017
259,"Maine","Urban collector",111,68641,660366,17,8037,104457,2017
260,"Maine","Urban local road",84,24067,116881,15,4988,11906,2017
261,"Maine","Total",2458,1245870,10214246,326,100418,861842,2017
262,"Maryland","Rural Interstate",185,225577,8880405,1,605,41250,2017
263,"Maryland","Rural arterial",173,312118,3701613,4,1994,40820,2017
264,"Maryland","Rural minor arterial",217,123289,1759623,12,4973,98823,2017
265,"Maryland","Rural major collector",355,160480,1515601,20,3951,83832,2017
266,"Maryland","Rural minor collector",490,124506,946162,36,7467,75368,2017
267,"Maryland","Rural local road",1005,191921,964761,107,12544,67681,2017
268,"Maryland","Urban Interstate",698,1804834,54258136,16,38401,2024041,2017
269,"Maryland","Urban freeway/expressway",430,837941,19051560,4,2902,85901,2017
270,"Maryland","Urban other principal arterial",455,703801,11817246,15,43531,405854,2017
271,"Maryland","Urban minor arterial",331,317304,4811480,14,12680,123608,2017
272,"Maryland","Urban collector",295,154175,2139249,12,2895,113638,2017
273,"Maryland","Urban local road",701,404526,5814844,59,45346,442297,2017
274,"Maryland","Total",5335,5360478,1.157e+08,300,177294,3603113,2017
275,"Massachusetts","Rural Interstate",89,54291,2726571,2,1091,39858,2017
276,"Massachusetts","Rural arterial",68,59960,977155,3,14390,65763,2017
277,"Massachusetts","Rural minor arterial",125,55761,826626,13,4423,174719,2017
278,"Massachusetts","Rural major collector",217,62870,586858,23,8067,52069,2017
279,"Massachusetts","Rural minor collector",123,28491,152946,12,1878,10976,2017
280,"Massachusetts","Rural local road",441,66363,216117,50,5036,18300,2017
281,"Massachusetts","Urban Interstate",904,1373231,52253305,65,204191,3535468,2017
282,"Massachusetts","Urban freeway/expressway",456,484086,18438832,56,97153,2390681,2017
283,"Massachusetts","Urban other principal arterial",698,794146,17282121,96,148945,2892295,2017
284,"Massachusetts","Urban minor arterial",960,616235,13778162,82,62861,1090573,2017
285,"Massachusetts","Urban collector",524,281359,3534521,40,29217,242197,2017
286,"Massachusetts","Urban local road",587,221292,2233685,40,15772,120358,2017
287,"Massachusetts","Total",5192,4098090,1.130e+08,482,593032,10633257,2017
288,"Michigan","Rural Interstate",401,366542,7908816,12,6797,247014,2017
289,"Michigan","Rural arterial",637,410993,5642667,22,8419,114182,2017
290,"Michigan","Rural minor arterial",610,295127,3143955,39,19852,165666,2017
291,"Michigan","Rural major collector",2089,686261,4420563,279,63581,537350,2017
292,"Michigan","Rural minor collector",544,141069,1099448,64,10813,33121,2017
293,"Michigan","Rural local road",3162,567623,1556108,489,53683,127827,2017
294,"Michigan","Urban Interstate",829,1391416,29855289,51,198430,1805107,2017
295,"Michigan","Urban freeway/expressway",319,335670,8367754,10,11042,308278,2017
296,"Michigan","Urban other principal arterial",712,879018,15648018,48,104552,1004606,2017
297,"Michigan","Urban minor arterial",811,744130,9717303,73,41129,900386,2017
298,"Michigan","Urban collector",475,290248,3417785,34,18910,156111,2017
299,"Michigan","Urban local road",591,327574,2949852,54,20728,194425,2017
300,"Michigan","Total",11180,6435676,93727558,1175,557941,5594073,2017
301,"Minnesota","Rural Interstate",292,265509,3211201,5,3721,36468,2017
302,"Minnesota","Rural arterial",695,489162,4010699,11,4205,61286,2017
303,"Minnesota","Rural minor arterial",1014,490618,2558060,15,8409,35144,2017
304,"Minnesota","Rural major collector",1954,713138,1856978,118,27346,98578,2017
305,"Minnesota","Rural minor collector",1322,348828,479962,105,15766,30909,2017
306,"Minnesota","Rural local road",5696,922330,645382,372,46323,31151,2017
307,"Minnesota","Urban Interstate",438,960269,16894057,4,3877,151250,2017
308,"Minnesota","Urban freeway/expressway",231,632859,7813346,0,0,0,2017
309,"Minnesota","Urban other principal arterial",351,580059,5879217,11,31710,171490,2017
310,"Minnesota","Urban minor arterial",634,1185309,7775088,33,70473,315005,2017
311,"Minnesota","Urban collector",313,307613,1647650,13,9921,68242,2017
312,"Minnesota","Urban local road",389,206618,837637,22,7098,33404,2017
313,"Minnesota","Total",13329,7102318,53609277,709,228853,1032927,2017
314,"Mississippi","Rural Interstate",540,740700,7409510,4,5056,54000,2017
315,"Mississippi","Rural arterial",1371,1676355,7699430,24,15486,101400,2017
316,"Mississippi","Rural minor arterial",1377,981793,4209200,35,22266,88700,2017
317,"Mississippi","Rural major collector",3885,1942017,4498504,358,121054,302745,2017
318,"Mississippi","Rural minor collector",859,325446,736990,56,12858,16591,2017
319,"Mississippi","Rural local road",7329,1888363,1573450,1430,205650,155987,2017
320,"Mississippi","Urban Interstate",333,746718,8724340,2,67533,56600,2017
321,"Mississippi","Urban freeway/expressway",77,149898,1067150,0,0,0,2017
322,"Mississippi","Urban other principal arterial",395,952107,4920184,13,8666,109500,2017
323,"Mississippi","Urban minor arterial",220,198486,1734757,18,10596,117685,2017
324,"Mississippi","Urban collector",290,129727,978242,25,6461,74715,2017
325,"Mississippi","Urban local road",396,119034,448567,43,6235,25502,2017
326,"Mississippi","Total",17072,9850648,44000324,2008,481865,1103425,2017
327,"Missouri","Rural Interstate",475,501867,6530134,25,40213,355184,2017
328,"Missouri","Rural arterial",1173,1095459,6989979,39,49254,212639,2017
329,"Missouri","Rural minor arterial",1135,668759,3029707,94,65233,186939,2017
330,"Missouri","Rural major collector",4004,1419543,3704801,627,239041,437635,2017
331,"Missouri","Rural minor collector",1050,231058,357948,160,40942,48351,2017
332,"Missouri","Rural local road",11957,1703171,1052279,1778,169026,111848,2017
333,"Missouri","Urban Interstate",895,1892467,38866718,48,174624,2914042,2017
334,"Missouri","Urban freeway/expressway",614,895528,12397014,15,45265,293205,2017
335,"Missouri","Urban other principal arterial",498,688505,9522411,23,56026,402752,2017
336,"Missouri","Urban minor arterial",799,824116,7227601,54,61129,459576,2017
337,"Missouri","Urban collector",739,415667,3032724,73,38466,276329,2017
338,"Missouri","Urban local road",1148,362308,1737724,149,34892,184646,2017
339,"Missouri","Total",24487,10698454,94449040,3085,1014117,5883146,2017
340,"Montana","Rural Interstate",747,594457,2882270,32,56635,150025,2017
341,"Montana","Rural arterial",482,269539,1512196,20,14505,50200,2017
342,"Montana","Rural minor arterial",512,222737,521180,37,28959,49512,2017
343,"Montana","Rural major collector",583,215459,526273,15,7462,21170,2017
344,"Montana","Rural minor collector",503,114027,134480,45,9706,4828,2017
345,"Montana","Rural local road",2185,364857,276923,352,41541,29625,2017
346,"Montana","Urban Interstate",84,74988,798020,4,2640,24355,2017
347,"Montana","Urban freeway/expressway",0,0,0,0,0,0,2017
348,"Montana","Urban other principal arterial",58,120788,779665,3,11041,55925,2017
349,"Montana","Urban minor arterial",44,41800,309833,2,7317,17240,2017
350,"Montana","Urban collector",34,17789,80350,1,88,3860,2017
351,"Montana","Urban local road",70,15198,106401,4,380,400,2017
352,"Montana","Total",5302,2051645,7927591,515,180277,407140,2017
353,"Nebraska","Rural Interstate",212,194912,2563790,0,0,0,2017
354,"Nebraska","Rural arterial",896,556879,3680897,44,19132,183766,2017
355,"Nebraska","Rural minor arterial",1286,490038,2348778,54,35549,111285,2017
356,"Nebraska","Rural major collector",2361,695684,1509871,163,39064,75410,2017
357,"Nebraska","Rural minor collector",1213,216595,164038,143,17114,12837,2017
358,"Nebraska","Rural local road",8563,1137406,547403,1830,173394,68131,2017
359,"Nebraska","Urban Interstate",118,309915,4240603,2,3185,19470,2017
360,"Nebraska","Urban freeway/expressway",53,128749,1222471,1,1132,42568,2017
361,"Nebraska","Urban other principal arterial",230,381392,3939951,7,5672,82806,2017
362,"Nebraska","Urban minor arterial",150,172740,1802258,7,14611,80964,2017
363,"Nebraska","Urban collector",91,68033,502118,2,1879,4155,2017
364,"Nebraska","Urban local road",157,43851,195696,5,1073,1340,2017
365,"Nebraska","Total",15330,4396200,22717874,2258,311810,682732,2017
366,"Nevada","Rural Interstate",319,229996,3102880,1,134,4000,2017
367,"Nevada","Rural arterial",135,63770,775376,1,225,1100,2017
368,"Nevada","Rural minor arterial",29,17425,117345,0,0,0,2017
369,"Nevada","Rural major collector",95,37237,137788,5,1282,1440,2017
370,"Nevada","Rural minor collector",61,23278,103520,4,664,4009,2017
371,"Nevada","Rural local road",160,40508,93336,11,1853,1510,2017
372,"Nevada","Urban Interstate",245,513115,15036820,2,4361,249400,2017
373,"Nevada","Urban freeway/expressway",72,110467,3675420,0,0,0,2017
374,"Nevada","Urban other principal arterial",139,164495,3338960,3,1616,54900,2017
375,"Nevada","Urban minor arterial",178,208163,3085818,4,4177,46300,2017
376,"Nevada","Urban collector",219,231703,1748777,0,0,0,2017
377,"Nevada","Urban local road",292,133340,964234,0,0,0,2017
378,"Nevada","Total",1944,1773502,32180274,31,14316,362659,2017
379,"New Hampshire","Rural Interstate",207,120430,1834621,1,141,12500,2017
380,"New Hampshire","Rural arterial",124,58110,1042715,12,5548,102489,2017
381,"New Hampshire","Rural minor arterial",163,61421,755040,8,3301,37560,2017
382,"New Hampshire","Rural major collector",198,65526,519274,27,10865,55820,2017
383,"New Hampshire","Rural minor collector",177,36924,223330,18,4097,23510,2017
384,"New Hampshire","Rural local road",831,111531,341410,130,14596,69850,2017
385,"New Hampshire","Urban Interstate",158,215611,5211906,14,17867,363310,2017
386,"New Hampshire","Urban freeway/expressway",93,106317,2770030,2,9762,32000,2017
387,"New Hampshire","Urban other principal arterial",113,159413,1771406,8,12913,148415,2017
388,"New Hampshire","Urban minor arterial",133,101972,1435195,15,13278,168656,2017
389,"New Hampshire","Urban collector",119,60436,635390,12,5612,60900,2017
390,"New Hampshire","Urban local road",163,49106,271270,23,3855,36660,2017
391,"New Hampshire","Total",2479,1146802,16811587,270,101840,1111670,2017
392,"New Jersey","Rural Interstate",66,91400,2693434,2,1273,109975,2017
393,"New Jersey","Rural arterial",87,154108,1961230,9,6633,148947,2017
394,"New Jersey","Rural minor arterial",81,37855,630000,13,5263,113436,2017
395,"New Jersey","Rural major collector",169,52150,775947,18,5975,82667,2017
396,"New Jersey","Rural minor collector",89,22704,210403,6,850,8756,2017
397,"New Jersey","Rural local road",577,100776,467050,69,6488,34476,2017
398,"New Jersey","Urban Interstate",1046,2379019,59980136,37,50574,1640594,2017
399,"New Jersey","Urban freeway/expressway",806,1268084,43823722,35,173003,2366074,2017
400,"New Jersey","Urban other principal arterial",917,1333660,27663493,116,147381,3139823,2017
401,"New Jersey","Urban minor arterial",1206,867317,15566366,137,99611,1731843,2017
402,"New Jersey","Urban collector",681,306678,4399254,74,25164,453516,2017
403,"New Jersey","Urban local road",1012,373303,3471097,80,17671,188860,2017
404,"New Jersey","Total",6737,6987061,1.616e+08,596,539891,10018967,2017
405,"New Mexico","Rural Interstate",584,286454,11270264,10,4748,60595,2017
406,"New Mexico","Rural arterial",366,175464,3380647,14,15863,77275,2017
407,"New Mexico","Rural minor arterial",370,130180,1117936,18,5003,14691,2017
408,"New Mexico","Rural major collector",641,244314,1975075,38,10223,31953,2017
409,"New Mexico","Rural minor collector",407,147342,340998,47,13335,18869,2017
410,"New Mexico","Rural local road",608,139860,1458268,84,16633,50471,2017
411,"New Mexico","Urban Interstate",277,316913,17332200,14,15183,495052,2017
412,"New Mexico","Urban freeway/expressway",1,688,26447,0,0,0,2017
413,"New Mexico","Urban other principal arterial",300,334510,9258505,7,6254,108890,2017
414,"New Mexico","Urban minor arterial",169,131699,1774608,10,12522,93362,2017
415,"New Mexico","Urban collector",153,73784,826482,6,1781,20995,2017
416,"New Mexico","Urban local road",123,33663,292509,3,468,4759,2017
417,"New Mexico","Total",3999,2014876,49053939,251,102018,976912,2017
418,"New York","Rural Interstate",595,516050,6206845,59,58424,709188,2017
419,"New York","Rural arterial",661,482785,3621356,46,18647,197063,2017
420,"New York","Rural minor arterial",699,293269,2399203,62,25993,212055,2017
421,"New York","Rural major collector",1384,480697,2570682,138,52181,260957,2017
422,"New York","Rural minor collector",1767,383584,1341711,197,44214,159625,2017
423,"New York","Rural local road",4150,673517,1221166,651,86120,160681,2017
424,"New York","Urban Interstate",1713,3943377,61676930,129,682527,5093704,2017
425,"New York","Urban freeway/expressway",1136,1855701,43904102,69,165624,3366015,2017
426,"New York","Urban other principal arterial",1172,1788609,22378271,83,113410,1659116,2017
427,"New York","Urban minor arterial",1550,1341188,15177879,110,75739,1003214,2017
428,"New York","Urban collector",1219,607737,5043603,120,66029,489723,2017
429,"New York","Urban local road",1410,628838,2541930,173,63106,204116,2017
430,"New York","Total",17456,12995357,1.681e+08,1837,1452020,13515457,2017
431,"North Carolina","Rural Interstate",348,302160,6636320,8,10263,163000,2017
432,"North Carolina","Rural arterial",897,1016990,8023977,37,80942,351700,2017
433,"North Carolina","Rural minor arterial",690,478978,3823611,51,118326,281081,2017
434,"North Carolina","Rural major collector",1818,944842,5078360,189,197450,492710,2017
435,"North Carolina","Rural minor collector",1417,486266,1993117,180,48139,224058,2017
436,"North Carolina","Rural local road",7125,1493112,3768184,953,142940,417045,2017
437,"North Carolina","Urban Interstate",853,1195777,33703934,26,21577,956000,2017
438,"North Carolina","Urban freeway/expressway",636,943204,13599997,49,45567,1448600,2017
439,"North Carolina","Urban other principal arterial",812,831673,14352975,55,52561,793050,2017
440,"North Carolina","Urban minor arterial",1016,922382,11670891,65,97818,632900,2017
441,"North Carolina","Urban collector",884,513976,5070920,77,35677,406870,2017
442,"North Carolina","Urban local road",1687,667707,6020285,164,62856,576353,2017
443,"North Carolina","Total",18183,9797072,1.137e+08,1854,914120,6743367,2017
444,"North Dakota","Rural Interstate",148,84301,658080,3,2434,5675,2017
445,"North Dakota","Rural arterial",356,190064,625396,5,2024,9260,2017
446,"North Dakota","Rural minor arterial",254,110105,247115,6,2497,6340,2017
447,"North Dakota","Rural major collector",884,250140,238711,35,8327,4837,2017
448,"North Dakota","Rural minor collector",12,3053,1195,2,425,400,2017
449,"North Dakota","Rural local road",2470,365486,212054,555,54184,13796,2017
450,"North Dakota","Urban Interstate",59,82025,757475,1,974,4100,2017
451,"North Dakota","Urban freeway/expressway",0,0,0,0,0,0,2017
452,"North Dakota","Urban other principal arterial",75,142928,1232200,3,8279,30050,2017
453,"North Dakota","Urban minor arterial",66,84717,373024,1,944,1925,2017
454,"North Dakota","Urban collector",21,14528,57570,0,0,0,2017
455,"North Dakota","Urban local road",32,10713,34622,3,274,370,2017
456,"North Dakota","Total",4377,1338066,4437442,614,80367,76753,2017
457,"Ohio","Rural Interstate",834,926896,19839602,5,2864,100521,2017
458,"Ohio","Rural arterial",1404,1141572,10764361,23,8099,165224,2017
459,"Ohio","Rural minor arterial",925,445094,4503780,19,7652,95328,2017
460,"Ohio","Rural major collector",3867,1324169,9202372,147,47318,287808,2017
461,"Ohio","Rural minor collector",3045,592541,2803376,219,33023,167114,2017
462,"Ohio","Rural local road",10725,1874365,6485951,901,119685,417722,2017
463,"Ohio","Urban Interstate",1342,2610783,66325825,20,39678,668388,2017
464,"Ohio","Urban freeway/expressway",770,1122178,16340781,7,8434,98603,2017
465,"Ohio","Urban other principal arterial",897,1239631,13259057,44,97566,725725,2017
466,"Ohio","Urban minor arterial",1094,1085295,10184371,65,103243,594216,2017
467,"Ohio","Urban collector",1015,680584,6962937,77,39017,395098,2017
468,"Ohio","Urban local road",1427,605003,4862419,126,34493,281767,2017
469,"Ohio","Total",27345,13648118,1.715e+08,1653,541076,3997514,2017
470,"Oklahoma","Rural Interstate",599,553634,8505750,8,5344,102450,2017
471,"Oklahoma","Rural arterial",1387,1115278,7442960,20,35672,98450,2017
472,"Oklahoma","Rural minor arterial",1209,775569,3668999,46,49179,143980,2017
473,"Oklahoma","Rural major collector",7121,2155395,5978987,820,215753,369397,2017
474,"Oklahoma","Rural minor collector",5,10034,4260,0,0,0,2017
475,"Oklahoma","Rural local road",9509,1390719,1806014,2074,186109,254244,2017
476,"Oklahoma","Urban Interstate",497,761637,18667437,31,44011,1320750,2017
477,"Oklahoma","Urban freeway/expressway",421,539075,11261820,13,11050,392600,2017
478,"Oklahoma","Urban other principal arterial",355,381090,4078587,14,26568,142350,2017
479,"Oklahoma","Urban minor arterial",700,457272,4717510,57,36080,337037,2017
480,"Oklahoma","Urban collector",572,442849,3389801,72,46277,346262,2017
481,"Oklahoma","Urban local road",696,167597,1244381,79,16838,97389,2017
482,"Oklahoma","Total",23071,8750155,70766506,3234,672884,3604909,2017
483,"Oregon","Rural Interstate",363,437897,9370180,3,12797,126900,2017
484,"Oregon","Rural arterial",701,625333,4424439,15,16243,99137,2017
485,"Oregon","Rural minor arterial",502,316263,1851596,12,8921,47179,2017
486,"Oregon","Rural major collector",1374,544565,2162790,73,26856,240108,2017
487,"Oregon","Rural minor collector",929,236550,478403,60,12482,22671,2017
488,"Oregon","Rural local road",2568,452471,479380,200,29129,23681,2017
489,"Oregon","Urban Interstate",307,934746,19301324,5,19725,531100,2017
490,"Oregon","Urban freeway/expressway",74,149050,3442700,1,14598,43200,2017
491,"Oregon","Urban other principal arterial",337,556806,6721627,16,35994,377350,2017
492,"Oregon","Urban minor arterial",434,490129,5963558,25,32862,251834,2017
493,"Oregon","Urban collector",355,212517,2004735,23,10532,77125,2017
494,"Oregon","Urban local road",203,94881,716748,11,11179,3085,2017
495,"Oregon","Total",8147,5051213,56917480,444,231323,1843370,2017
496,"Pennsylvania","Rural Interstate",1020,907155,17615428,35,22826,1056247,2017
497,"Pennsylvania","Rural arterial",995,939908,7881103,64,20653,555845,2017
498,"Pennsylvania","Rural minor arterial",1466,550509,5514458,225,46670,725702,2017
499,"Pennsylvania","Rural major collector",1926,600508,3207915,310,70036,494964,2017
500,"Pennsylvania","Rural minor collector",2041,405313,1431548,397,66764,320418,2017
501,"Pennsylvania","Rural local road",7084,1120900,2769720,1905,235670,708291,2017
502,"Pennsylvania","Urban Interstate",1406,2733020,52478639,58,132204,2886352,2017
503,"Pennsylvania","Urban freeway/expressway",842,1172686,22467422,32,65302,1175803,2017
504,"Pennsylvania","Urban other principal arterial",1513,1867511,24241632,219,246555,3328453,2017
505,"Pennsylvania","Urban minor arterial",1548,1098961,14322799,244,132488,2204726,2017
506,"Pennsylvania","Urban collector",1387,566354,5599239,269,78845,1093766,2017
507,"Pennsylvania","Urban local road",1551,590384,3816629,415,128324,828911,2017
508,"Pennsylvania","Total",22779,12553214,1.613e+08,4173,1246341,15379478,2017
509,"Rhode Island","Rural Interstate",13,7003,362215,1,795,43029,2017
510,"Rhode Island","Rural arterial",16,6455,137635,2,2327,18655,2017
511,"Rhode Island","Rural minor arterial",9,2277,38281,1,76,5199,2017
512,"Rhode Island","Rural major collector",22,6349,65461,8,2660,30071,2017
513,"Rhode Island","Rural minor collector",22,6941,22411,1,43,1800,2017
514,"Rhode Island","Rural local road",31,3283,17460,12,1147,4600,2017
515,"Rhode Island","Urban Interstate",130,219409,7523554,22,50808,1250615,2017
516,"Rhode Island","Urban freeway/expressway",121,243522,3481537,33,47901,1161584,2017
517,"Rhode Island","Urban other principal arterial",128,127208,1915053,27,22762,444986,2017
518,"Rhode Island","Urban minor arterial",143,114076,1656306,34,43581,397233,2017
519,"Rhode Island","Urban collector",86,40862,416240,20,8104,75285,2017
520,"Rhode Island","Urban local road",57,24042,316326,20,5095,42410,2017
521,"Rhode Island","Total",778,801432,15952479,181,185306,3475467,2017
522,"South Carolina","Rural Interstate",349,440833,7696350,17,20886,298450,2017
523,"South Carolina","Rural arterial",495,753181,3112239,44,65597,228925,2017
524,"South Carolina","Rural minor arterial",735,691500,2819951,90,85824,309875,2017
525,"South Carolina","Rural major collector",2118,822831,2477394,198,72983,235181,2017
526,"South Carolina","Rural minor collector",449,115657,143552,33,6152,8016,2017
527,"South Carolina","Rural local road",2592,569933,721798,321,50821,67795,2017
528,"South Carolina","Urban Interstate",384,1135275,13145675,11,25764,667300,2017
529,"South Carolina","Urban freeway/expressway",102,340956,1608489,6,7757,153250,2017
530,"South Carolina","Urban other principal arterial",368,856286,6868297,24,38362,411750,2017
531,"South Carolina","Urban minor arterial",539,643264,5628047,58,46547,548050,2017
532,"South Carolina","Urban collector",602,276325,2393102,57,22563,235210,2017
533,"South Carolina","Urban local road",608,161458,570560,67,12570,37165,2017
534,"South Carolina","Total",9341,6807506,47185454,926,455833,3200967,2017
535,"South Dakota","Rural Interstate",333,192143,1703740,5,3262,22226,2017
536,"South Dakota","Rural arterial",448,242454,936543,11,4384,21819,2017
537,"South Dakota","Rural minor arterial",521,224898,629053,17,7048,21441,2017
538,"South Dakota","Rural major collector",1150,339877,440145,178,47475,57568,2017
539,"South Dakota","Rural minor collector",164,46392,30614,31,5306,3843,2017
540,"South Dakota","Rural local road",2789,411493,215579,816,83909,51688,2017
541,"South Dakota","Urban Interstate",121,109977,1499980,1,933,12000,2017
542,"South Dakota","Urban freeway/expressway",10,15510,83285,0,0,0,2017
543,"South Dakota","Urban other principal arterial",75,90459,841004,1,812,20527,2017
544,"South Dakota","Urban minor arterial",87,76418,604848,4,1835,21714,2017
545,"South Dakota","Urban collector",52,31095,200376,9,5567,41906,2017
546,"South Dakota","Urban local road",68,17001,64397,8,1397,2108,2017
547,"South Dakota","Total",5818,1797722,7249564,1081,161934,276840,2017
548,"Tennessee","Rural Interstate",824,918288,27856009,22,21868,861290,2017
549,"Tennessee","Rural arterial",1120,1024800,10465843,21,32603,150020,2017
550,"Tennessee","Rural minor arterial",1597,988359,7365772,56,48231,255340,2017
551,"Tennessee","Rural major collector",1943,741365,3432158,56,32869,94470,2017
552,"Tennessee","Rural minor collector",3198,826261,2601986,157,35289,97440,2017
553,"Tennessee","Rural local road",6896,1109370,1913352,465,57495,109491,2017
554,"Tennessee","Urban Interstate",744,1341734,55783720,17,115740,1430200,2017
555,"Tennessee","Urban freeway/expressway",302,519465,10218302,6,9693,249960,2017
556,"Tennessee","Urban other principal arterial",1085,1375327,21867780,35,70366,837770,2017
557,"Tennessee","Urban minor arterial",906,830186,10938468,30,39353,354890,2017
558,"Tennessee","Urban collector",565,245600,2607115,29,11608,135950,2017
559,"Tennessee","Urban local road",989,301938,1926795,59,18584,113730,2017
560,"Tennessee","Total",20169,10222698,1.570e+08,953,493704,4690551,2017
561,"Texas","Rural Interstate",2220,1744677,31313857,4,1831,48420,2017
562,"Texas","Rural arterial",4747,4157485,33181526,15,35690,80910,2017
563,"Texas","Rural minor arterial",3851,2670006,13351088,19,32638,65410,2017
564,"Texas","Rural major collector",8064,3295324,11256904,60,33420,75149,2017
565,"Texas","Rural minor collector",2470,701477,1247143,13,4688,8108,2017
566,"Texas","Rural local road",10258,2119019,4223471,593,66695,70811,2017
567,"Texas","Urban Interstate",3344,8583855,1.828e+08,25,191443,958750,2017
568,"Texas","Urban freeway/expressway",4436,12592131,1.407e+08,9,22216,237733,2017
569,"Texas","Urban other principal arterial",3909,5626707,62112036,9,17358,157410,2017
570,"Texas","Urban minor arterial",2761,2742761,29136833,21,21987,149608,2017
571,"Texas","Urban collector",2871,2356343,20692632,23,41060,132978,2017
572,"Texas","Urban local road",4938,2739703,17764713,56,20878,269663,2017
573,"Texas","Total",53869,49329494,5.478e+08,847,489910,2254950,2017
574,"Utah","Rural Interstate",418,281886,7745071,0,0,0,2017
575,"Utah","Rural arterial",175,102147,1155203,1,899,2690,2017
576,"Utah","Rural minor arterial",148,53043,278889,1,862,1580,2017
577,"Utah","Rural major collector",300,91073,334175,11,2124,17489,2017
578,"Utah","Rural minor collector",150,32302,56089,8,961,1068,2017
579,"Utah","Rural local road",542,90547,135299,40,2635,2403,2017
580,"Utah","Urban Interstate",463,607831,42682358,5,5517,235605,2017
581,"Utah","Urban freeway/expressway",54,59771,1489699,0,0,0,2017
582,"Utah","Urban other principal arterial",247,307068,6545026,6,4871,138225,2017
583,"Utah","Urban minor arterial",163,162125,2116579,4,635,60064,2017
584,"Utah","Urban collector",203,93400,877081,7,2370,47886,2017
585,"Utah","Urban local road",188,53906,453107,4,739,24935,2017
586,"Utah","Total",3051,1935105,63868576,87,21617,531945,2017
587,"Vermont","Rural Interstate",255,196179,1961202,3,6853,17450,2017
588,"Vermont","Rural arterial",119,97037,681270,4,1929,20300,2017
589,"Vermont","Rural minor arterial",260,97935,976375,10,4234,31300,2017
590,"Vermont","Rural major collector",525,148112,1015329,24,10085,49930,2017
591,"Vermont","Rural minor collector",174,30334,96840,9,1690,7990,2017
592,"Vermont","Rural local road",1218,151221,289242,86,10621,17790,2017
593,"Vermont","Urban Interstate",54,44333,833548,2,3665,26200,2017
594,"Vermont","Urban freeway/expressway",2,981,18200,0,0,0,2017
595,"Vermont","Urban other principal arterial",55,50942,511290,2,1266,29300,2017
596,"Vermont","Urban minor arterial",36,21664,268210,3,1047,18870,2017
597,"Vermont","Urban collector",42,16649,156860,1,277,7300,2017
598,"Vermont","Urban local road",32,7155,28632,1,109,300,2017
599,"Vermont","Total",2772,862548,6836998,145,41779,226730,2017
600,"Virginia","Rural Interstate",884,916545,22794956,21,27494,391497,2017
601,"Virginia","Rural arterial",769,1274106,6376504,28,48141,202421,2017
602,"Virginia","Rural minor arterial",898,589128,3890485,49,27216,221643,2017
603,"Virginia","Rural major collector",1657,651689,2678836,103,33939,159222,2017
604,"Virginia","Rural minor collector",1080,262249,708183,53,8534,29091,2017
605,"Virginia","Rural local road",4425,774626,1909400,365,41219,85648,2017
606,"Virginia","Urban Interstate",854,1886208,40073623,23,82540,1122152,2017
607,"Virginia","Urban freeway/expressway",424,692402,9943184,6,4918,112836,2017
608,"Virginia","Urban other principal arterial",754,1395307,16906062,53,98473,1090871,2017
609,"Virginia","Urban minor arterial",1297,1121941,13694174,76,67914,595134,2017
610,"Virginia","Urban collector",420,226500,1946162,28,12426,79374,2017
611,"Virginia","Urban local road",470,239162,1869020,20,6991,51159,2017
612,"Virginia","Total",13932,10029868,1.228e+08,825,459811,4141048,2017
613,"Washington","Rural Interstate",301,355117,4706973,36,56290,517029,2017
614,"Washington","Rural arterial",561,501324,3186480,36,59607,170537,2017
615,"Washington","Rural minor arterial",357,260383,1482473,22,21816,68927,2017
616,"Washington","Rural major collector",1319,542165,2131446,76,36522,117740,2017
617,"Washington","Rural minor collector",740,197357,423926,24,5447,13302,2017
618,"Washington","Rural local road",2286,431054,473600,90,12304,16960,2017
619,"Washington","Urban Interstate",647,1756901,26348010,10,113200,237872,2017
620,"Washington","Urban freeway/expressway",491,1403691,12920632,13,93519,318361,2017
621,"Washington","Urban other principal arterial",477,831560,8879850,36,70121,506286,2017
622,"Washington","Urban minor arterial",509,588346,4823208,30,43824,245678,2017
623,"Washington","Urban collector",255,180567,1190104,13,6758,47469,2017
624,"Washington","Urban local road",290,134049,496881,13,4176,16060,2017
625,"Washington","Total",8233,7182520,67063583,399,523589,2276221,2017
626,"West Virginia","Rural Interstate",405,474304,5664197,34,36418,452632,2017
627,"West Virginia","Rural arterial",431,689797,2781403,56,52465,339307,2017
628,"West Virginia","Rural minor arterial",350,203003,1198427,83,34223,252851,2017
629,"West Virginia","Rural major collector",1485,440580,2271646,322,69148,457476,2017
630,"West Virginia","Rural minor collector",497,93181,318148,82,9053,38374,2017
631,"West Virginia","Rural local road",2974,421703,680204,579,56127,99965,2017
632,"West Virginia","Urban Interstate",249,585513,6501154,45,95900,1021861,2017
633,"West Virginia","Urban freeway/expressway",75,188730,840759,11,38418,119364,2017
634,"West Virginia","Urban other principal arterial",133,283448,2044832,23,47755,360821,2017
635,"West Virginia","Urban minor arterial",211,223131,1874655,56,52735,480309,2017
636,"West Virginia","Urban collector",134,71354,539648,21,12132,94115,2017
637,"West Virginia","Urban local road",284,96523,372514,60,14655,67501,2017
638,"West Virginia","Total",7228,3771273,25087587,1372,519036,3784576,2017
639,"Wisconsin","Rural Interstate",642,473754,11856974,24,12077,521280,2017
640,"Wisconsin","Rural arterial",1162,811129,8586058,31,17748,137559,2017
641,"Wisconsin","Rural minor arterial",1129,526095,4043035,54,18551,196169,2017
642,"Wisconsin","Rural major collector",1800,564736,2982463,237,55251,280539,2017
643,"Wisconsin","Rural minor collector",715,171933,642655,105,23349,72248,2017
644,"Wisconsin","Rural local road",5888,988639,2158357,634,71173,123541,2017
645,"Wisconsin","Urban Interstate",650,1151431,22563281,11,22324,496850,2017
646,"Wisconsin","Urban freeway/expressway",248,385219,5319635,3,6084,60650,2017
647,"Wisconsin","Urban other principal arterial",611,817373,9790355,21,19191,295858,2017
648,"Wisconsin","Urban minor arterial",637,669923,6779739,51,53899,520876,2017
649,"Wisconsin","Urban collector",208,129448,1187009,26,10098,69733,2017
650,"Wisconsin","Urban local road",563,282446,2206183,48,11605,100843,2017
651,"Wisconsin","Total",14253,6972132,78115744,1245,321355,2876146,2017
652,"Wyoming","Rural Interstate",762,340244,3177419,44,24169,209820,2017
653,"Wyoming","Rural arterial",338,185100,812354,22,13239,61967,2017
654,"Wyoming","Rural minor arterial",177,76996,248289,3,4056,13084,2017
655,"Wyoming","Rural major collector",317,128646,260880,17,6256,12594,2017
656,"Wyoming","Rural minor collector",212,80163,207342,24,11145,21041,2017
657,"Wyoming","Rural local road",938,184106,215617,156,32124,35307,2017
658,"Wyoming","Urban Interstate",164,141666,1146093,14,22145,99568,2017
659,"Wyoming","Urban freeway/expressway",7,4397,74329,0,0,0,2017
660,"Wyoming","Urban other principal arterial",76,91086,711144,9,20754,71547,2017
661,"Wyoming","Urban minor arterial",41,43861,239495,9,10386,67080,2017
662,"Wyoming","Urban collector",49,31519,152337,5,2248,14604,2017
663,"Wyoming","Urban local road",46,14184,62689,7,1779,3708,2017
664,"Wyoming","Total",3127,1321973,7307988,310,148306,610320,2017
665,"Puerto Rico","Rural Interstate",200,273352,4986559,19,27805,474429,2017
666,"Puerto Rico","Rural arterial",75,205504,1253963,8,18680,217974,2017
667,"Puerto Rico","Rural minor arterial",153,89322,1457755,30,7967,277469,2017
668,"Puerto Rico","Rural major collector",193,73076,913857,33,17618,149231,2017
669,"Puerto Rico","Rural minor collector",142,35241,428898,26,4115,86903,2017
670,"Puerto Rico","Rural local road",432,125744,562986,68,8537,48697,2017
671,"Puerto Rico","Urban Interstate",247,534060,16052377,17,50451,2119320,2017
672,"Puerto Rico","Urban freeway/expressway",112,255006,5037793,7,17663,304900,2017
673,"Puerto Rico","Urban other principal arterial",207,292057,6340093,21,36049,531452,2017
674,"Puerto Rico","Urban minor arterial",172,111783,2359547,26,14393,334324,2017
675,"Puerto Rico","Urban collector",169,91889,1592558,23,6146,252185,2017
676,"Puerto Rico","Urban local road",223,99816,708767,23,9381,83028,2017
677,"Puerto Rico","Total",2325,2186855,41695153,301,218811,4879912,2017
